com/api/essentials/NetClientGet.class
com/api/model/User_Tempalte.class
com/api/model/Rpi_details.class
com/api/essentials/KaaApi_URL_Collection.class
shared/Auto_Controler_config.class
com/api/services/RpiService.class
shared/Message.class
shared/Device.class
com/api/SwaggerConfigurationServlet.class
shared/Sinfo.class
com/api/model/Auto_Controler_config_model.class
com/api/essentials/Rpi_client.class
com/api/filter/CrossOriginResourceSharingFilter.class
com/api/filter/SecureTokenGenerator.class
shared/Actions.class
com/projects/mavendemo/resource/HelloResource.class
com/api/services/Service.class
com/api/filter/SecurityFilter.class
shared/Region.class
