{
    "pluginClassName":"org.kaaproject.kaa.server.appenders.cassandra.appender.CassandraLogAppender",
    "pluginTypeName":"Cassandra",
    "applicationId": "1",
    "applicationToken":"24964139918191451747",
    "name":"sensor-per-date",
    "headerStructure":[
        "TIMESTAMP"
    ],
    "maxLogSchemaVersion":2,
    "minLogSchemaVersion":2,
    "tenantId":"1",
    "jsonConfiguration":"{\"cassandraServers\":[{\"host\":\"localhost\",\"port\":9042}],\"cassandraCredential\":null,\"keySpace\":\"sensors\",\"tableNamePattern\":\"sensor_per_date\",\"columnMapping\":[{\"type\":\"EVENT_FIELD\",\"value\":{\"string\":\"sensorId\"},\"columnName\":\"sensor_Id\",\"columnType\":\"TEXT\",\"partitionKey\":true,\"clusteringKey\":false},{\"type\":\"HEADER_FIELD\",\"value\":{\"string\":\"timestamp\"},\"columnName\":\"ts\",\"columnType\":\"BIGINT\",\"partitionKey\":false,\"clusteringKey\":true},{\"type\":\"EVENT_FIELD\",\"value\":{\"string\":\"model\"},\"columnName\":\"model\",\"columnType\":\"TEXT\",\"partitionKey\":false,\"clusteringKey\":false},{\"type\":\"EVENT_FIELD\",\"value\":{\"string\":\"region\"},\"columnName\":\"region\",\"columnType\":\"TEXT\",\"partitionKey\":false,\"clusteringKey\":false},{\"type\":\"EVENT_FIELD\",\"value\":{\"string\":\"value\"},\"columnName\":\"value\",\"columnType\":\"FLOAT\",\"partitionKey\":false,\"clusteringKey\":false},{\"type\":\"EVENT_JSON\",\"value\":{\"string\":\"\"},\"columnName\":\"event_json\",\"columnType\":\"TEXT\",\"partitionKey\":false,\"clusteringKey\":false},{\"type\":\"TS\",\"value\":{\"string\":\"YYYY-MM-dd\"},\"columnName\":\"date\",\"columnType\":\"TEXT\",\"partitionKey\":true,\"clusteringKey\":false}],\"clusteringMapping\":[{\"columnName\":\"ts\",\"order\":\"DESC\"}],\"cassandraBatchType\":{\"org.kaaproject.kaa.server.appenders.cassandra.config.gen.CassandraBatchType\":\"UNLOGGED\"},\"cassandraSocketOption\":null,\"executorThreadPoolSize\":1,\"callbackThreadPoolSize\":2,\"dataTTL\":86400,\"cassandraWriteConsistencyLevel\":{\"org.kaaproject.kaa.server.appenders.cassandra.config.gen.CassandraWriteConsistencyLevel\":\"ONE\"},\"cassandraCompression\":{\"org.kaaproject.kaa.server.appenders.cassandra.config.gen.CassandraCompression\":\"NONE\"},\"cassandraExecuteRequestType\":{\"org.kaaproject.kaa.server.appenders.cassandra.config.gen.CassandraExecuteRequestType\":\"SYNC\"},\"minLogSchemaVersion\":2,\"maxLogSchemaVersion\":2,\"pluginTypeName\":\"Cassandra\",\"pluginClassName\":\"org.kaaproject.kaa.server.appenders.cassandra.appender.CassandraLogAppender\",\"headerStructure\":[\"Timestamp\"]}"
}
